{
  "posts": [
    {
      "id": 1,
      "title": "json-server",
      "author": "typicode"
    },
    {
      "email": "dgdg@wp.pl",
      "name": "hl",
      "surname": "hk",
      "state": "hhl",
      "city": "kgk",
      "address": "kjhh",
      "zipcode": "12-123",
      "phone": "123132123",
      "birthdate": "2023-11-10",
      "id": 2
    }
  ],
  "comments": [
    {
      "id": 1,
      "body": "some comment",
      "postId": 1
    }
  ],
  "profile": {
    "name": "typicode"
  }
}